Data Wrangling
…
## [1] "1960_fertility"       "1960_fertility"       "1960_life_expectancy"
## [4] "1960_life_expectancy" "1961_fertility"

Encoding multiple variables in a column name is such a common problem that the readr package includes a function to separate these columns into two or more. Apart from the data, the separate function takes three arguments: the name of the column to be separated, the names to be used for the new columns and the character that separates the variables. So a first attempt at this is:

dat %>% separate(key, c("year", "variable_name"), "_")

Because "_" is the default separator we actually can simply write:

dat %>% separate(key, c("year", "variable_name"))

## Warning: Expected 2 pieces. Additional pieces discarded in 112 rows [3, 4, 7, 8,
## 11, 12, 15, 16, 19, 20, 23, 24, 27, 28, 31, 32, 35, 36, 39, 40, ...].

## # A tibble: 224 x 4
##    country     year  variable_name value
##    <chr>       <chr> <chr>         <dbl>
##  1 Germany     1960  fertility      2.41
##  2 South Korea 1960  fertility      6.16
##  3 Germany     1960  life          69.3 
##  4 South Korea 1960  life          53.0 
##  5 Germany     1961  fertility      2.44
##  6 South Korea 1961  fertility      5.99
##  7 Germany     1961  life          69.8 
##  8 South Korea 1961  life          53.8 
##  9 Germany     1962  fertility      2.47
## 10 South Korea 1962  fertility      5.79
## #  with 214 more rows

However, we run into a problem. Note that we receive the warning Too many values at 112 locations: and that the life_exepectancy variable is truncated to life. This is because the _ is used to separate life and expectancy not just year and variable name. We could add a third column to catch this and let the separate function know which column to fill in with missing values, NA, when there is no third value. Here we tell it to fill the column on the right:

dat %>% separate(key, 
                 c("year", "first_variable_name", "second_variable_name"), 
                 fill = "right")

## # A tibble: 224 x 5
##    country     year  first_variable_name second_variable_name value
##    <chr>       <chr> <chr>               <chr>                <dbl>
##  1 Germany     1960  fertility           <NA>                  2.41
##  2 South Korea 1960  fertility           <NA>                  6.16
##  3 Germany     1960  life                expectancy           69.3 
##  4 South Korea 1960  life                expectancy           53.0 
##  5 Germany     1961  fertility           <NA>                  2.44
##  6 South Korea 1961  fertility           <NA>                  5.99
##  7 Germany     1961  life                expectancy           69.8 
##  8 South Korea 1961  life                expectancy           53.8 
##  9 Germany     1962  fertility           <NA>                  2.47
## 10 South Korea 1962  fertility           <NA>                  5.79
## #  with 214 more rows

However, if we read the separate help file we find that a better approach is to merge the last two variables when there is an extra separation:

dat %>% separate(key, c("year", "variable_name"), sep = "_", extra = "merge")

## # A tibble: 224 x 4
##    country     year  variable_name   value
##    <chr>       <chr> <chr>           <dbl>
##  1 Germany     1960  fertility        2.41
##  2 South Korea 1960  fertility        6.16
##  3 Germany     1960  life_expectancy 69.3 
##  4 South Korea 1960  life_expectancy 53.0 
##  5 Germany     1961  fertility        2.44
##  6 South Korea 1961  fertility        5.99
##  7 Germany     1961  life_expectancy 69.8 
##  8 South Korea 1961  life_expectancy 53.8 
##  9 Germany     1962  fertility        2.47
## 10 South Korea 1962  fertility        5.79
## #  with 214 more rows

This achieves the separation we wanted. However, we are not done yet. We need to create a column for each variable. As we learned, the spread function can do this:

dat %>% separate(key, c("year", "variable_name"), sep = "_", extra = "merge") %>%
            spread(variable_name, value) 

## # A tibble: 112 x 4
##    country year  fertility life_expectancy
##    <chr>   <chr>     <dbl>           <dbl>
##  1 Germany 1960       2.41            69.3
##  2 Germany 1961       2.44            69.8
##  3 Germany 1962       2.47            70.0
##  4 Germany 1963       2.49            70.1
##  5 Germany 1964       2.49            70.7
##  6 Germany 1965       2.48            70.6
##  7 Germany 1966       2.44            70.8
##  8 Germany 1967       2.37            71.0
##  9 Germany 1968       2.28            70.6
## 10 Germany 1969       2.17            70.5
## #  with 102 more rows

The data is now in tidy format with one row for each observation with three variables: year, fertility and life expectancy.

unite

It is sometimes useful to do the inverse of separate, i.e.unite two columns into one. So, although this is not an optimal approach, had we used this command to separate:

dat %>% 
  separate(key, c("year", "first_variable_name", "second_variable_name"), fill = "right")

## # A tibble: 224 x 5
##    country     year  first_variable_name second_variable_name value
##    <chr>       <chr> <chr>               <chr>                <dbl>
##  1 Germany     1960  fertility           <NA>                  2.41
##  2 South Korea 1960  fertility           <NA>                  6.16
##  3 Germany     1960  life                expectancy           69.3 
##  4 South Korea 1960  life                expectancy           53.0 
##  5 Germany     1961  fertility           <NA>                  2.44
##  6 South Korea 1961  fertility           <NA>                  5.99
##  7 Germany     1961  life                expectancy           69.8 
##  8 South Korea 1961  life                expectancy           53.8 
##  9 Germany     1962  fertility           <NA>                  2.47
## 10 South Korea 1962  fertility           <NA>                  5.79
## #  with 214 more rows

we can achieve the same final result by uniting the second and third column like this:

dat %>% 
  separate(key, c("year", "first_variable_name", "second_variable_name"), fill = "right") %>%
  unite(variable_name, first_variable_name, second_variable_name, sep = "_")

## # A tibble: 224 x 4
##    country     year  variable_name   value
##    <chr>       <chr> <chr>           <dbl>
##  1 Germany     1960  fertility_NA     2.41
##  2 South Korea 1960  fertility_NA     6.16
##  3 Germany     1960  life_expectancy 69.3 
##  4 South Korea 1960  life_expectancy 53.0 
##  5 Germany     1961  fertility_NA     2.44
##  6 South Korea 1961  fertility_NA     5.99
##  7 Germany     1961  life_expectancy 69.8 
##  8 South Korea 1961  life_expectancy 53.8 
##  9 Germany     1962  fertility_NA     2.47
## 10 South Korea 1962  fertility_NA     5.79
## #  with 214 more rows

Then spreading the columns:

dat %>% 
  separate(key, c("year", "first_variable_name", "second_variable_name"), fill = "right") %>%
  unite(variable_name, first_variable_name, second_variable_name, sep = "_") %>%
  spread(variable_name, value) %>%
  rename(fertility = fertility_NA)

## # A tibble: 112 x 4
##    country year  fertility life_expectancy
##    <chr>   <chr>     <dbl>           <dbl>
##  1 Germany 1960       2.41            69.3
##  2 Germany 1961       2.44            69.8
##  3 Germany 1962       2.47            70.0
##  4 Germany 1963       2.49            70.1
##  5 Germany 1964       2.49            70.7
##  6 Germany 1965       2.48            70.6
##  7 Germany 1966       2.44            70.8
##  8 Germany 1967       2.37            71.0
##  9 Germany 1968       2.28            70.6
## 10 Germany 1969       2.17            70.5
## #  with 102 more rows
…
